{
    "nodes":
    [
        {
            "id": "VL0",
            "position": [0.0, 0.0, 0.0]
        },
        {
            "id": "VL1",
            "position": [500.0, 0.0, 0.0]
        },
        {
            "id": "VL2",
            "position": [700.0, -200.0, 0.0]
        },
        {
            "id": "VL3",
            "position": [700.0, 200.0, 0.0]
        },
        {
            "id": "RL0",
            "position": [0.0, 10.0, 0.0]
        },
        {
            "id": "RL2",
            "position": [700.0, -190.0, 0.0]
        },
        {
            "id": "RL1",
            "position": [500.0, 10.0, 0.0]
        },
        {
            "id": "RL3",
            "position": [700.0, 210.0, 0.0]
        }
    ],
    "pipes":
    [
        {
            "roughness": 0.047,
            "start_node_id": "VL0",
            "end_node_id": "VL1",
            "id": "LTG01_VL0_VL1",
            "ht_coefficient": 0.5,
            "diameter": 107.0,
            "length": 500.0
        },
        {
            "roughness": 0.047,
            "start_node_id": "VL1",
            "end_node_id": "VL2",
            "id": "LTG02_VL1_VL2",
            "ht_coefficient": 0.5,
            "diameter": 107.0,
            "length": 282.8
        },
        {
            "roughness": 0.047,
            "start_node_id": "VL1",
            "end_node_id": "VL3",
            "id": "LTG07_VL1_VL3",
            "ht_coefficient": 0.5,
            "diameter": 107.0,
            "length": 282.8
        },
        {
            "roughness": 0.047,
            "start_node_id": "VL2",
            "end_node_id": "VL3",
            "id": "LTG08_VL2_VL3",
            "ht_coefficient": 0.5,
            "diameter": 107.0,
            "length": 400.0
        },
        {
            "roughness": 0.047,
            "start_node_id": "RL1",
            "end_node_id": "RL0",
            "id": "LTG10_RL1_RL0",
            "ht_coefficient": 0.5,
            "diameter": 107.0,
            "length": 500.0
        },
        {
            "roughness": 0.047,
            "start_node_id": "RL2",
            "end_node_id": "RL1",
            "id": "LTG11_RL2_RL1",
            "ht_coefficient": 0.5,
            "diameter": 107.0,
            "length": 282.8
        },
        {
            "roughness": 0.047,
            "start_node_id": "RL3",
            "end_node_id": "RL1",
            "id": "LTG16_RL3_RL1",
            "ht_coefficient": 0.5,
            "diameter": 107.0,
            "length": 282.8
        },
        {
            "roughness": 0.047,
            "start_node_id": "RL2",
            "end_node_id": "RL3",
            "id": "LTG17_RL2_RL3",
            "ht_coefficient": 0.5,
            "diameter": 107.0,
            "length": 400.0
        }
    ],
    "consumers":
    [
        {
            "start_node_id": "VL2",
            "end_node_id": "RL2",
            "id": "C19_VL2_RL2"
        },
        {
            "start_node_id": "VL1",
            "end_node_id": "RL1",
            "id": "C20_VL1_RL1"
        },
        {
            "start_node_id": "VL3",
            "end_node_id": "RL3",
            "id": "C22_VL3_RL3"
        }
    ],
    "sources":
    [
        {
            "start_node_id": "RL0",
            "end_node_id": "VL0",
            "id": "S00_RL0_VL0"
        }
    ]
}
