[
    {
	"temperature": 60.0,
	"profile": "HEF_1D3",
	"id": "c0",
	"consumer_factor": -222.09
    },
    {
	"temperature": 60.0,
	"profile": "HEF_1D3",
	"id": "c1",
	"consumer_factor": -236.63
    },
    {
	"temperature": 60.0,
	"profile": "HEF_1D3",
	"id": "c2",
	"consumer_factor": -128.93
    },
    {
	"temperature": 60.0,
	"profile": "HEF_1D3",
	"id": "c3",
	"consumer_factor": -140.42
    },
    {
	"temperature": 60.0,
	"profile": "HEF_1D3",
	"id": "c4",
	"consumer_factor": -136.6
    },
    {
	"temperature": 60.0,
	"profile": "HEF_1D3",
	"id": "c5",
	"consumer_factor": -130.1
    },
    {
	"temperature": 60.0,
	"profile": "HEF_1D3",
	"id": "c6",
	"consumer_factor": -90.85
    },
    {
	"temperature": 60.0,
	"profile": "HEF_1D3",
	"id": "c7",
	"consumer_factor": -841.59
    },
    {
	"temperature": 60.0,
	"profile": "HEF_1D3",
	"id": "c8",
	"consumer_factor": -171.77
    },
    {
	"temperature": 60.0,
	"profile": "HEF_1D3",
	"id": "c9",
	"consumer_factor": -118.61
    },
    {
	"temperature": 60.0,
	"profile": "HEF_1D3",
	"id": "c10",
	"consumer_factor": -190.94
    },
    {
	"temperature": 60.0,
	"profile": "HEF_1D3",
	"id": "c11",
	"consumer_factor": -1590.69
    },
    {
	"temperature": 60.0,
	"profile": "HEF_1D3",
	"id": "c12",
	"consumer_factor": -505.18
    },
    {
	"temperature": 60.0,
	"profile": "HEF_1D3",
	"id": "c13",
	"consumer_factor": -174.89
    },
    {
	"temperature": 60.0,
	"profile": "HEF_1D3",
	"id": "c14",
	"consumer_factor": -162.84
    },
    {
	"temperature": 60.0,
	"profile": "HEF_1D3",
	"id": "c15",
	"consumer_factor": -226.15
    },
    {
	"temperature": 60.0,
	"profile": "HEF_1D3",
	"id": "c16",
	"consumer_factor": -106.5
    },
    {
	"temperature": 60.0,
	"profile": "HEF_1D3",
	"id": "c17",
	"consumer_factor": -118.32
    },
    {
	"temperature": 60.0,
	"profile": "HEF_1D3",
	"id": "c18",
	"consumer_factor": -86.08
    },
    {
	"temperature": 60.0,
	"profile": "HEF_1D3",
	"id": "c19",
	"consumer_factor": -110.15
    },
    {
	"temperature": 60.0,
	"profile": "HEF_1D3",
	"id": "c20",
	"consumer_factor": -87.76
    },
    {
	"temperature": 60.0,
	"profile": "HEF_1D3",
	"id": "c21",
	"consumer_factor": -240.68
    },
    {
	"temperature": 60.0,
	"profile": "HEF_1D3",
	"id": "c22",
	"consumer_factor": -214.27
    },
    {
	"temperature": 60.0,
	"profile": "HEF_1D3",
	"id": "c23",
	"consumer_factor": -118.81
    },
    {
	"temperature": 60.0,
	"profile": "HEF_1D3",
	"id": "c24",
	"consumer_factor": -807.06
    },
    {
	"temperature": 60.0,
	"profile": "HEF_1D3",
	"id": "c25",
	"consumer_factor": -903.84
    },
    {
	"temperature": 60.0,
	"profile": "HEF_1D3",
	"id": "c26",
	"consumer_factor": -70.78
    },
    {
	"temperature": 60.0,
	"profile": "HEF_1D3",
	"id": "c27",
	"consumer_factor": -285.45
    },
    {
	"temperature": 60.0,
	"profile": "HEF_1D3",
	"id": "c28",
	"consumer_factor": -72.39
    },
    {
	"temperature": 60.0,
	"profile": "HEF_1D3",
	"id": "c29",
	"consumer_factor": -79.76
    },
    {
	"temperature": 60.0,
	"profile": "HEF_1D3",
	"id": "c30",
	"consumer_factor": -61.05
    },
    {
	"temperature": 60.0,
	"profile": "HEF_1D3",
	"id": "c31",
	"consumer_factor": -107.68
    },
    {
	"temperature": 60.0,
	"profile": "HEF_1D3",
	"id": "c32",
	"consumer_factor": -88.09
    },
    {
	"temperature": 60.0,
	"profile": "HEF_1D3",
	"id": "c33",
	"consumer_factor": -130.65
    },
    {
	"temperature": 60.0,
	"profile": "HEF_1D3",
	"id": "c34",
	"consumer_factor": -211.95
    },
    {
	"temperature": 60.0,
	"profile": "HEF_1D3",
	"id": "c35",
	"consumer_factor": -128.59
    },
    {
	"temperature": 60.0,
	"profile": "HEF_1D3",
	"id": "c36",
	"consumer_factor": -18.63
    },
    {
	"temperature": 60.0,
	"profile": "HEF_1D3",
	"id": "c37",
	"consumer_factor": -278.39
    },
    {
	"temperature": 60.0,
	"profile": "HEF_1D3",
	"id": "c38",
	"consumer_factor": -157.01
    },
    {
	"temperature": 60.0,
	"profile": "HEF_1D3",
	"id": "c39",
	"consumer_factor": -154.16
    },
    {
	"temperature": 60.0,
	"profile": "HEF_1D3",
	"id": "c40",
	"consumer_factor": -155.21
    },
    {
	"temperature": 60.0,
	"profile": "HEF_1D3",
	"id": "c41",
	"consumer_factor": -92.88
    },
    {
	"temperature": 60.0,
	"profile": "HEF_1D3",
	"id": "c42",
	"consumer_factor": -88.08
    },
    {
	"temperature": 60.0,
	"profile": "HEF_1D3",
	"id": "c43",
	"consumer_factor": -207.98
    },
    {
	"temperature": 60.0,
	"profile": "HEF_1D3",
	"id": "c44",
	"consumer_factor": -184.94
    },
    {
	"temperature": 60.0,
	"profile": "HEF_1D3",
	"id": "c45",
	"consumer_factor": -114.61
    },
    {
	"temperature": 60.0,
	"profile": "HEF_1D3",
	"id": "c46",
	"consumer_factor": -169.96
    },
    {
	"temperature": 60.0,
	"profile": "HEF_1D3",
	"id": "c47",
	"consumer_factor": -516.14
    },
    {
	"temperature": 60.0,
	"profile": "HEF_1D3",
	"id": "c48",
	"consumer_factor": -103.05
    },
    {
	"temperature": 60.0,
	"profile": "HEF_1D3",
	"id": "c49",
	"consumer_factor": -128.68
    },
    {
	"temperature": 60.0,
	"profile": "HEF_1D3",
	"id": "c50",
	"consumer_factor": -94.62
    },
    {
	"temperature": 60.0,
	"profile": "HEF_1D3",
	"id": "c51",
	"consumer_factor": -52.19
    },
    {
	"temperature": 60.0,
	"profile": "HEF_1D3",
	"id": "c52",
	"consumer_factor": -64.69
    },
    {
	"temperature": 60.0,
	"profile": "HEF_1D3",
	"id": "c53",
	"consumer_factor": -148.97
    },
    {
	"temperature": 60.0,
	"profile": "HEF_1D3",
	"id": "c54",
	"consumer_factor": -68.06
    },
    {
	"temperature": 60.0,
	"profile": "HEF_1D3",
	"id": "c55",
	"consumer_factor": -76.31
    },
    {
	"temperature": 60.0,
	"profile": "HEF_1D3",
	"id": "c56",
	"consumer_factor": -184.68
    },
    {
	"temperature": 60.0,
	"profile": "HEF_1D3",
	"id": "c57",
	"consumer_factor": -96.73
    },
    {
	"temperature": 60.0,
	"profile": "HEF_1D3",
	"id": "c58",
	"consumer_factor": -157.24
    },
    {
	"temperature": 60.0,
	"profile": "HEF_1D3",
	"id": "c59",
	"consumer_factor": -110.37
    },
    {
	"temperature": 60.0,
	"profile": "HEF_1D3",
	"id": "c60",
	"consumer_factor": -161.97
    },
    {
	"temperature": 60.0,
	"profile": "HEF_1D3",
	"id": "c61",
	"consumer_factor": -172.55
    },
    {
	"temperature": 60.0,
	"profile": "HEF_1D3",
	"id": "c62",
	"consumer_factor": -296.87
    },
    {
	"temperature": 60.0,
	"profile": "HEF_1D3",
	"id": "c63",
	"consumer_factor": -97.21
    },
    {
	"temperature": 60.0,
	"profile": "HEF_1D3",
	"id": "c64",
	"consumer_factor": -148.53
    },
    {
	"temperature": 60.0,
	"profile": "HEF_1D3",
	"id": "c65",
	"consumer_factor": -77.64
    },
    {
	"temperature": 60.0,
	"profile": "HEF_1D3",
	"id": "c66",
	"consumer_factor": -180.28
    },
    {
	"temperature": 60.0,
	"profile": "HEF_1D3",
	"id": "c67",
	"consumer_factor": -89.87
    },
    {
	"temperature": 60.0,
	"profile": "HEF_1D3",
	"id": "c68",
	"consumer_factor": -582.51
    },
    {
	"temperature": 60.0,
	"profile": "HEF_1D3",
	"id": "c69",
	"consumer_factor": -154.15
    },
    {
	"temperature": 60.0,
	"profile": "HEF_1D3",
	"id": "c70",
	"consumer_factor": -246.09
    },
    {
	"temperature": 60.0,
	"profile": "HEF_1D3",
	"id": "c71",
	"consumer_factor": -95.69
    },
    {
	"temperature": 60.0,
	"profile": "HEF_1D3",
	"id": "c72",
	"consumer_factor": -75.44
    },
    {
	"temperature": 60.0,
	"profile": "HEF_1D3",
	"id": "c73",
	"consumer_factor": -156.35
    },
    {
	"temperature": 60.0,
	"profile": "HEF_1D3",
	"id": "c74",
	"consumer_factor": -471.3
    },
    {
	"temperature": 60.0,
	"profile": "HEF_1D3",
	"id": "c75",
	"consumer_factor": -170.81
    },
    {
	"temperature": 60.0,
	"profile": "HEF_1D3",
	"id": "c76",
	"consumer_factor": -110.35
    },
    {
	"temperature": 60.0,
	"profile": "HEF_1D3",
	"id": "c77",
	"consumer_factor": -149.39
    },
    {
	"temperature": 60.0,
	"profile": "HEF_1D3",
	"id": "c78",
	"consumer_factor": -234.1
    },
    {
	"temperature": 60.0,
	"profile": "HEF_1D3",
	"id": "c79",
	"consumer_factor": -224.12
    },
    {
	"temperature": 60.0,
	"profile": "HEF_1D3",
	"id": "c80",
	"consumer_factor": -270.97
    },
    {
	"temperature": 60.0,
	"profile": "HEF_1D3",
	"id": "c81",
	"consumer_factor": -144.71
    },
    {
	"temperature": 60.0,
	"profile": "HEF_1D3",
	"id": "c82",
	"consumer_factor": -146.58
    },
    {
	"temperature": 60.0,
	"profile": "HEF_1D3",
	"id": "c83",
	"consumer_factor": -103.85
    },
    {
	"temperature": 60.0,
	"profile": "HEF_1D3",
	"id": "c84",
	"consumer_factor": -79.13
    },
    {
	"temperature": 60.0,
	"profile": "HEF_1D3",
	"id": "c85",
	"consumer_factor": -261.72
    },
    {
	"temperature": 60.0,
	"profile": "HEF_1D3",
	"id": "c86",
	"consumer_factor": -127.59
    },
    {
	"temperature": 60.0,
	"profile": "HEF_1D3",
	"id": "c87",
	"consumer_factor": -74.51
    },
    {
	"temperature": 60.0,
	"profile": "HEF_1D3",
	"id": "c88",
	"consumer_factor": -181.51
    },
    {
	"temperature": 60.0,
	"profile": "HEF_1D3",
	"id": "c89",
	"consumer_factor": -104.02
    },
    {
	"temperature": 60.0,
	"profile": "HEF_1D3",
	"id": "c90",
	"consumer_factor": -160.83
    },
    {
	"temperature": 60.0,
	"profile": "HEF_1D3",
	"id": "c91",
	"consumer_factor": -99.14
    },
    {
	"temperature": 60.0,
	"profile": "HEF_1D3",
	"id": "c92",
	"consumer_factor": -143.19
    },
    {
	"temperature": 60.0,
	"profile": "HEF_1D3",
	"id": "c93",
	"consumer_factor": -293.26
    },
    {
	"temperature": 60.0,
	"profile": "HEF_1D3",
	"id": "c94",
	"consumer_factor": -114.09
    },
    {
	"temperature": 60.0,
	"profile": "HEF_1D3",
	"id": "c95",
	"consumer_factor": -134.25
    },
    {
	"temperature": 60.0,
	"profile": "HEF_1D3",
	"id": "c96",
	"consumer_factor": -18.68
    },
    {
	"temperature": 60.0,
	"profile": "HEF_1D3",
	"id": "c97",
	"consumer_factor": -109.97
    },
    {
	"temperature": 60.0,
	"profile": "HEF_1D3",
	"id": "c98",
	"consumer_factor": -70.82
    },
    {
	"temperature": 60.0,
	"profile": "HEF_1D3",
	"id": "c99",
	"consumer_factor": -119.6
    },
    {
	"temperature": 60.0,
	"profile": "HEF_1D3",
	"id": "c100",
	"consumer_factor": -236.6
    },
    {
	"temperature": 60.0,
	"profile": "HEF_1D3",
	"id": "c101",
	"consumer_factor": -260.13
    },
    {
	"temperature": 60.0,
	"profile": "HEF_1D3",
	"id": "c102",
	"consumer_factor": -151.71
    },
    {
	"temperature": 60.0,
	"profile": "HEF_1D3",
	"id": "c103",
	"consumer_factor": -92.72
    },
    {
	"temperature": 60.0,
	"profile": "HEF_1D3",
	"id": "c104",
	"consumer_factor": -130.64
    },
    {
	"temperature": 60.0,
	"profile": "HEF_1D3",
	"id": "c105",
	"consumer_factor": -91.98
    },
    {
	"temperature": 60.0,
	"profile": "HEF_1D3",
	"id": "c106",
	"consumer_factor": -102.02
    },
    {
	"temperature": 60.0,
	"profile": "HEF_1D3",
	"id": "c107",
	"consumer_factor": -184.14
    },
    {
	"temperature": 60.0,
	"profile": "HEF_1D3",
	"id": "c108",
	"consumer_factor": -235.66
    },
    {
	"temperature": 60.0,
	"profile": "HEF_1D3",
	"id": "c109",
	"consumer_factor": -120.21
    },
    {
	"temperature": 60.0,
	"profile": "HEF_1D3",
	"id": "c110",
	"consumer_factor": -102.72
    },
    {
	"temperature": 60.0,
	"profile": "HEF_1D3",
	"id": "c111",
	"consumer_factor": -177.11
    },
    {
	"temperature": 60.0,
	"profile": "HEF_1D3",
	"id": "c112",
	"consumer_factor": -3192.87
    },
    {
	"temperature": 60.0,
	"profile": "HEF_1D3",
	"id": "c113",
	"consumer_factor": -94.46
    },
    {
	"temperature": 60.0,
	"profile": "HEF_1D3",
	"id": "c114",
	"consumer_factor": -107.74
    },
    {
	"temperature": 60.0,
	"profile": "HEF_1D3",
	"id": "c115",
	"consumer_factor": -60.33
    },
    {
	"temperature": 60.0,
	"profile": "HEF_1D3",
	"id": "c116",
	"consumer_factor": -183.86
    },
    {
	"temperature": 60.0,
	"profile": "HEF_1D3",
	"id": "c117",
	"consumer_factor": -119.0
    },
    {
	"temperature": 60.0,
	"profile": "HEF_1D3",
	"id": "c118",
	"consumer_factor": -104.83
    },
    {
	"temperature": 60.0,
	"profile": "HEF_1D3",
	"id": "c119",
	"consumer_factor": -182.18
    },
    {
	"temperature": 60.0,
	"profile": "HEF_1D3",
	"id": "c120",
	"consumer_factor": -127.0
    },
    {
	"temperature": 60.0,
	"profile": "HEF_1D3",
	"id": "c121",
	"consumer_factor": -101.82
    },
    {
	"temperature": 60.0,
	"profile": "HEF_1D3",
	"id": "c122",
	"consumer_factor": -253.1
    },
    {
	"temperature": 60.0,
	"profile": "HEF_1D3",
	"id": "c123",
	"consumer_factor": -107.95
    },
    {
	"temperature": 60.0,
	"profile": "HEF_1D3",
	"id": "c124",
	"consumer_factor": -124.47
    },
    {
	"temperature": 60.0,
	"profile": "HEF_1D3",
	"id": "c125",
	"consumer_factor": -69.47
    },
    {
	"temperature": 60.0,
	"profile": "HEF_1D3",
	"id": "c126",
	"consumer_factor": -116.45
    },
    {
	"temperature": 60.0,
	"profile": "HEF_1D3",
	"id": "c127",
	"consumer_factor": -127.58
    },
    {
	"temperature": 60.0,
	"profile": "HEF_1D3",
	"id": "c128",
	"consumer_factor": -59.87
    },
    {
	"temperature": 60.0,
	"profile": "HEF_1D3",
	"id": "c129",
	"consumer_factor": -26.3
    },
    {
	"temperature": 60.0,
	"profile": "HEF_1D3",
	"id": "c130",
	"consumer_factor": -140.84
    },
    {
	"temperature": 60.0,
	"profile": "HEF_1D3",
	"id": "c131",
	"consumer_factor": -289.72
    },
    {
	"temperature": 60.0,
	"profile": "HEF_1D3",
	"id": "c132",
	"consumer_factor": -107.2
    },
    {
	"temperature": 60.0,
	"profile": "HEF_1D3",
	"id": "c133",
	"consumer_factor": -100.56
    },
    {
	"temperature": 60.0,
	"profile": "HEF_1D3",
	"id": "c134",
	"consumer_factor": -129.49
    },
    {
	"temperature": 60.0,
	"profile": "HEF_1D3",
	"id": "c135",
	"consumer_factor": -255.24
    },
    {
	"temperature": 60.0,
	"profile": "HEF_1D3",
	"id": "c136",
	"consumer_factor": -166.08
    },
    {
	"temperature": 60.0,
	"profile": "HEF_1D3",
	"id": "c137",
	"consumer_factor": -254.59
    },
    {
	"temperature": 60.0,
	"profile": "HEF_1D3",
	"id": "c138",
	"consumer_factor": -72.01
    },
    {
	"temperature": 60.0,
	"profile": "HEF_1D3",
	"id": "c139",
	"consumer_factor": -223.1
    },
    {
	"temperature": 60.0,
	"profile": "HEF_1D3",
	"id": "c140",
	"consumer_factor": -3503.86
    },
    {
	"temperature": 60.0,
	"profile": "HEF_1D3",
	"id": "c141",
	"consumer_factor": -260.43
    },
    {
	"temperature": 60.0,
	"profile": "HEF_1D3",
	"id": "c142",
	"consumer_factor": -144.27
    },
    {
	"temperature": 60.0,
	"profile": "HEF_1D3",
	"id": "c143",
	"consumer_factor": -78.69
    },
    {
	"temperature": 60.0,
	"profile": "HEF_1D3",
	"id": "c144",
	"consumer_factor": -65.19
    },
    {
	"temperature": 60.0,
	"profile": "HEF_1D3",
	"id": "c145",
	"consumer_factor": -89.32
    },
    {
	"temperature": 60.0,
	"profile": "HEF_1D3",
	"id": "c146",
	"consumer_factor": -144.15
    },
    {
	"temperature": 60.0,
	"profile": "HEF_1D3",
	"id": "c147",
	"consumer_factor": -101.2
    },
    {
	"temperature": 60.0,
	"profile": "HEF_1D3",
	"id": "c148",
	"consumer_factor": -104.74
    },
    {
	"temperature": 60.0,
	"profile": "HEF_1D3",
	"id": "c149",
	"consumer_factor": -229.8
    },
    {
	"temperature": 60.0,
	"profile": "HEF_1D3",
	"id": "c150",
	"consumer_factor": -64.9
    },
    {
	"temperature": 60.0,
	"profile": "HEF_1D3",
	"id": "c151",
	"consumer_factor": -242.84
    },
    {
	"temperature": 60.0,
	"profile": "HEF_1D3",
	"id": "c152",
	"consumer_factor": -138.21
    },
    {
	"temperature": 60.0,
	"profile": "HEF_1D3",
	"id": "c153",
	"consumer_factor": -145.72
    },
    {
	"temperature": 60.0,
	"profile": "HEF_1D3",
	"id": "c154",
	"consumer_factor": -111.6
    },
    {
	"temperature": 60.0,
	"profile": "HEF_1D3",
	"id": "c155",
	"consumer_factor": -367.41
    },
    {
	"temperature": 60.0,
	"profile": "HEF_1D3",
	"id": "c156",
	"consumer_factor": -147.42
    },
    {
	"temperature": 60.0,
	"profile": "HEF_1D3",
	"id": "c157",
	"consumer_factor": -57.73
    },
    {
	"temperature": 60.0,
	"profile": "HEF_1D3",
	"id": "c158",
	"consumer_factor": -226.59
    },
    {
	"temperature": 60.0,
	"profile": "HEF_1D3",
	"id": "c159",
	"consumer_factor": -151.89
    },
    {
	"temperature": 60.0,
	"profile": "HEF_1D3",
	"id": "c160",
	"consumer_factor": -165.93
    },
    {
	"temperature": 60.0,
	"profile": "HEF_1D3",
	"id": "c161",
	"consumer_factor": -143.88
    },
    {
	"temperature": 60.0,
	"profile": "HEF_1D3",
	"id": "c162",
	"consumer_factor": -88.17
    },
    {
	"temperature": 60.0,
	"profile": "HEF_1D3",
	"id": "c163",
	"consumer_factor": -85.01
    },
    {
	"temperature": 60.0,
	"profile": "HEF_1D3",
	"id": "c164",
	"consumer_factor": -74.13
    },
    {
	"temperature": 60.0,
	"profile": "HEF_1D3",
	"id": "c165",
	"consumer_factor": -189.8
    },
    {
	"temperature": 60.0,
	"profile": "HEF_1D3",
	"id": "c166",
	"consumer_factor": -132.42
    },
    {
	"temperature": 60.0,
	"profile": "HEF_1D3",
	"id": "c167",
	"consumer_factor": -174.1
    },
    {
	"temperature": 60.0,
	"profile": "HEF_1D3",
	"id": "c168",
	"consumer_factor": -141.12
    },
    {
	"temperature": 60.0,
	"profile": "HEF_1D3",
	"id": "c169",
	"consumer_factor": -151.03
    },
    {
	"temperature": 60.0,
	"profile": "HEF_1D3",
	"id": "c170",
	"consumer_factor": -204.11
    },
    {
	"temperature": 60.0,
	"profile": "HEF_1D3",
	"id": "c171",
	"consumer_factor": -264.48
    },
    {
	"temperature": 60.0,
	"profile": "HEF_1D3",
	"id": "c172",
	"consumer_factor": -124.14
    },
    {
	"temperature": 60.0,
	"profile": "HEF_1D3",
	"id": "c173",
	"consumer_factor": -149.13
    },
    {
	"temperature": 60.0,
	"profile": "HEF_1D3",
	"id": "c174",
	"consumer_factor": -76.5
    },
    {
	"temperature": 60.0,
	"profile": "HEF_1D3",
	"id": "c175",
	"consumer_factor": -108.3
    },
    {
	"temperature": 60.0,
	"profile": "HEF_1D3",
	"id": "c176",
	"consumer_factor": -185.88
    },
    {
	"temperature": 60.0,
	"profile": "HEF_1D3",
	"id": "c177",
	"consumer_factor": -291.86
    },
    {
	"temperature": 60.0,
	"profile": "HEF_1D3",
	"id": "c178",
	"consumer_factor": -169.92
    },
    {
	"temperature": 62.0,
	"profile": "HEF_1D3",
	"id": "c179",
	"consumer_factor": -17697.4
    },
    {
	"temperature": 60.0,
	"profile": "HEF_1D3",
	"id": "c180",
	"consumer_factor": -137.45
    },
    {
	"temperature": 60.0,
	"profile": "HEF_1D3",
	"id": "c181",
	"consumer_factor": -142.13
    },
    {
	"temperature": 60.0,
	"profile": "HEF_1D3",
	"id": "c182",
	"consumer_factor": -255.26
    },
    {
	"temperature": 60.0,
	"profile": "HEF_1D3",
	"id": "c183",
	"consumer_factor": -92.68
    },
    {
	"temperature": 60.0,
	"profile": "HEF_1D3",
	"id": "c184",
	"consumer_factor": -56.63
    },
    {
	"temperature": 60.0,
	"profile": "HEF_1D3",
	"id": "c185",
	"consumer_factor": -59.69
    },
    {
	"temperature": 60.0,
	"profile": "HEF_1D3",
	"id": "c186",
	"consumer_factor": -169.59
    },
    {
	"temperature": 60.0,
	"profile": "HEF_1D3",
	"id": "c187",
	"consumer_factor": -271.12
    },
    {
	"temperature": 60.0,
	"profile": "HEF_1D3",
	"id": "c188",
	"consumer_factor": -165.84
    },
    {
	"temperature": 60.0,
	"profile": "HEF_1D3",
	"id": "c189",
	"consumer_factor": -76.77
    },
    {
	"temperature": 60.0,
	"profile": "HEF_1D3",
	"id": "c190",
	"consumer_factor": -456.09
    },
    {
	"temperature": 60.0,
	"profile": "HEF_1D3",
	"id": "c191",
	"consumer_factor": -147.69
    },
    {
	"temperature": 60.0,
	"profile": "HEF_1D3",
	"id": "c192",
	"consumer_factor": -277.65
    },
    {
	"temperature": 60.0,
	"profile": "HEF_1D3",
	"id": "c193",
	"consumer_factor": -89.36
    },
    {
	"temperature": 60.0,
	"profile": "HEF_1D3",
	"id": "c194",
	"consumer_factor": -254.07
    },
    {
	"temperature": 60.0,
	"profile": "HEF_1D3",
	"id": "c195",
	"consumer_factor": -91.75
    },
    {
	"temperature": 60.0,
	"profile": "HEF_1D3",
	"id": "c196",
	"consumer_factor": -164.9
    },
    {
	"temperature": 60.0,
	"profile": "HEF_1D3",
	"id": "c197",
	"consumer_factor": -63.65
    },
    {
	"temperature": 60.0,
	"profile": "HEF_1D3",
	"id": "c198",
	"consumer_factor": -135.23
    },
    {
	"temperature": 60.0,
	"profile": "HEF_1D3",
	"id": "c199",
	"consumer_factor": -84.84
    },
    {
	"temperature": 60.0,
	"profile": "HEF_1D3",
	"id": "c200",
	"consumer_factor": -102.51
    },
    {
	"temperature": 60.0,
	"profile": "HEF_1D3",
	"id": "c201",
	"consumer_factor": -200.03
    },
    {
	"temperature": 60.0,
	"profile": "HEF_1D3",
	"id": "c202",
	"consumer_factor": -175.18
    },
    {
	"temperature": 60.0,
	"profile": "HEF_1D3",
	"id": "c203",
	"consumer_factor": -168.53
    },
    {
	"temperature": 60.0,
	"profile": "HEF_1D3",
	"id": "c204",
	"consumer_factor": -107.29
    },
    {
	"temperature": 60.0,
	"profile": "HEF_1D3",
	"id": "c205",
	"consumer_factor": -4760.46
    },
    {
	"temperature": 60.0,
	"profile": "HEF_1D3",
	"id": "c206",
	"consumer_factor": -159.37
    },
    {
	"temperature": 60.0,
	"profile": "HEF_1D3",
	"id": "c207",
	"consumer_factor": -238.25
    },
    {
	"temperature": 60.0,
	"profile": "HEF_1D3",
	"id": "c208",
	"consumer_factor": -153.33
    },
    {
	"temperature": 60.0,
	"profile": "HEF_1D3",
	"id": "c209",
	"consumer_factor": -113.99
    },
    {
	"temperature": 60.0,
	"profile": "HEF_1D3",
	"id": "c210",
	"consumer_factor": -102.55
    },
    {
	"temperature": 60.0,
	"profile": "HEF_1D3",
	"id": "c211",
	"consumer_factor": -70.94
    },
    {
	"temperature": 60.0,
	"profile": "HEF_1D3",
	"id": "c212",
	"consumer_factor": -244.01
    },
    {
	"temperature": 60.0,
	"profile": "HEF_1D3",
	"id": "c213",
	"consumer_factor": -115.69
    },
    {
	"temperature": 60.0,
	"profile": "HEF_1D3",
	"id": "c214",
	"consumer_factor": -278.2
    },
    {
	"temperature": 60.0,
	"profile": "HEF_1D3",
	"id": "c215",
	"consumer_factor": -216.79
    },
    {
	"temperature": 60.0,
	"profile": "HEF_1D3",
	"id": "c216",
	"consumer_factor": -164.75
    },
    {
	"temperature": 60.0,
	"profile": "HEF_1D3",
	"id": "c217",
	"consumer_factor": -447.62
    },
    {
	"temperature": 60.0,
	"profile": "HEF_1D3",
	"id": "c218",
	"consumer_factor": -184.08
    },
    {
	"temperature": 60.0,
	"profile": "HEF_1D3",
	"id": "c219",
	"consumer_factor": -149.09
    },
    {
	"temperature": 60.0,
	"profile": "HEF_1D3",
	"id": "c220",
	"consumer_factor": -167.82
    },
    {
	"temperature": 60.0,
	"profile": "HEF_1D3",
	"id": "c221",
	"consumer_factor": -108.13
    },
    {
	"temperature": 60.0,
	"profile": "HEF_1D3",
	"id": "c222",
	"consumer_factor": -121.37
    },
    {
	"temperature": 60.0,
	"profile": "HEF_1D3",
	"id": "c223",
	"consumer_factor": -114.29
    },
    {
	"temperature": 60.0,
	"profile": "HEF_1D3",
	"id": "c224",
	"consumer_factor": -114.93
    },
    {
	"temperature": 60.0,
	"profile": "HEF_1D3",
	"id": "c225",
	"consumer_factor": -135.75
    },
    {
	"temperature": 60.0,
	"profile": "HEF_1D3",
	"id": "c226",
	"consumer_factor": -161.77
    },
    {
	"temperature": 60.0,
	"profile": "HEF_1D3",
	"id": "c227",
	"consumer_factor": -176.56
    },
    {
	"temperature": 60.0,
	"profile": "HEF_1D3",
	"id": "c228",
	"consumer_factor": -124.72
    },
    {
	"temperature": 60.0,
	"profile": "HEF_1D3",
	"id": "c229",
	"consumer_factor": -87.83
    },
    {
	"temperature": 60.0,
	"profile": "HEF_1D3",
	"id": "c230",
	"consumer_factor": -90.25
    },
    {
	"temperature": 60.0,
	"profile": "HEF_1D3",
	"id": "c231",
	"consumer_factor": -118.36
    },
    {
	"temperature": 60.0,
	"profile": "HEF_1D3",
	"id": "c232",
	"consumer_factor": -256.26
    },
    {
	"temperature": 60.0,
	"profile": "HEF_1D3",
	"id": "c233",
	"consumer_factor": -169.07
    },
    {
	"temperature": 60.0,
	"profile": "HEF_1D3",
	"id": "c234",
	"consumer_factor": -131.41
    },
    {
	"temperature": 60.0,
	"profile": "HEF_1D3",
	"id": "c235",
	"consumer_factor": -85.39
    },
    {
	"temperature": 60.0,
	"profile": "HEF_1D3",
	"id": "c236",
	"consumer_factor": -72.95
    },
    {
	"temperature": 60.0,
	"profile": "HEF_1D3",
	"id": "c237",
	"consumer_factor": -140.92
    },
    {
	"temperature": 60.0,
	"profile": "HEF_1D3",
	"id": "c238",
	"consumer_factor": -154.34
    },
    {
	"temperature": 60.0,
	"profile": "HEF_1D3",
	"id": "c239",
	"consumer_factor": -119.7
    },
    {
	"temperature": 60.0,
	"profile": "HEF_1D3",
	"id": "c240",
	"consumer_factor": -65.97
    },
    {
	"temperature": 60.0,
	"profile": "HEF_1D3",
	"id": "c241",
	"consumer_factor": -147.66
    },
    {
	"temperature": 60.0,
	"profile": "HEF_1D3",
	"id": "c242",
	"consumer_factor": -41.13
    },
    {
	"temperature": 60.0,
	"profile": "HEF_1D3",
	"id": "c243",
	"consumer_factor": -114.56
    },
    {
	"temperature": 60.0,
	"profile": "HEF_1D3",
	"id": "c244",
	"consumer_factor": -67.64
    },
    {
	"temperature": 60.0,
	"profile": "HEF_1D3",
	"id": "c245",
	"consumer_factor": -96.23
    },
    {
	"temperature": 60.0,
	"profile": "HEF_1D3",
	"id": "c246",
	"consumer_factor": -213.78
    },
    {
	"temperature": 60.0,
	"profile": "HEF_1D3",
	"id": "c247",
	"consumer_factor": -3003.01
    },
    {
	"temperature": 60.0,
	"profile": "HEF_1D3",
	"id": "c248",
	"consumer_factor": -40.05
    },
    {
	"temperature": 60.0,
	"profile": "HEF_1D3",
	"id": "c249",
	"consumer_factor": -232.49
    },
    {
	"temperature": 60.0,
	"profile": "HEF_1D3",
	"id": "c250",
	"consumer_factor": -94.89
    },
    {
	"temperature": 60.0,
	"profile": "HEF_1D3",
	"id": "c251",
	"consumer_factor": -164.94
    },
    {
	"temperature": 60.0,
	"profile": "HEF_1D3",
	"id": "c252",
	"consumer_factor": -130.41
    },
    {
	"temperature": 60.0,
	"profile": "HEF_1D3",
	"id": "c253",
	"consumer_factor": -194.11
    },
    {
	"temperature": 60.0,
	"profile": "HEF_1D3",
	"id": "c254",
	"consumer_factor": -125.27
    },
    {
	"temperature": 60.0,
	"profile": "HEF_1D3",
	"id": "c255",
	"consumer_factor": -108.31
    },
    {
	"temperature": 60.0,
	"profile": "HEF_1D3",
	"id": "c256",
	"consumer_factor": -143.75
    },
    {
	"temperature": 60.0,
	"profile": "HEF_1D3",
	"id": "c257",
	"consumer_factor": -330.2
    },
    {
	"temperature": 60.0,
	"profile": "HEF_1D3",
	"id": "c258",
	"consumer_factor": -172.14
    },
    {
	"temperature": 60.0,
	"profile": "HEF_1D3",
	"id": "c259",
	"consumer_factor": -129.33
    },
    {
	"temperature": 60.0,
	"profile": "HEF_1D3",
	"id": "c260",
	"consumer_factor": -161.36
    },
    {
	"temperature": 60.0,
	"profile": "HEF_1D3",
	"id": "c261",
	"consumer_factor": -73.05
    },
    {
	"temperature": 60.0,
	"profile": "HEF_1D3",
	"id": "c262",
	"consumer_factor": -70.82
    },
    {
	"temperature": 60.0,
	"profile": "HEF_1D3",
	"id": "c263",
	"consumer_factor": -115.37
    },
    {
	"temperature": 60.0,
	"profile": "HEF_1D3",
	"id": "c264",
	"consumer_factor": -108.11
    },
    {
	"temperature": 60.0,
	"profile": "HEF_1D3",
	"id": "c265",
	"consumer_factor": -1744.16
    },
    {
	"temperature": 60.0,
	"profile": "HEF_1D3",
	"id": "c266",
	"consumer_factor": -84.05
    },
    {
	"temperature": 60.0,
	"profile": "HEF_1D3",
	"id": "c267",
	"consumer_factor": -126.49
    },
    {
	"temperature": 60.0,
	"profile": "HEF_1D3",
	"id": "c268",
	"consumer_factor": -133.55
    },
    {
	"temperature": 60.0,
	"profile": "HEF_1D3",
	"id": "c269",
	"consumer_factor": -96.61
    },
    {
	"temperature": 60.0,
	"profile": "HEF_1D3",
	"id": "c270",
	"consumer_factor": -162.9
    },
    {
	"temperature": 60.0,
	"profile": "HEF_1D3",
	"id": "c271",
	"consumer_factor": -97.39
    },
    {
	"temperature": 60.0,
	"profile": "HEF_1D3",
	"id": "c272",
	"consumer_factor": -80.83
    },
    {
	"temperature": 60.0,
	"profile": "HEF_1D3",
	"id": "c273",
	"consumer_factor": -193.59
    },
    {
	"temperature": 60.0,
	"profile": "HEF_1D3",
	"id": "c274",
	"consumer_factor": -150.72
    },
    {
	"temperature": 60.0,
	"profile": "HEF_1D3",
	"id": "c275",
	"consumer_factor": -113.93
    },
    {
	"temperature": 60.0,
	"profile": "HEF_1D3",
	"id": "c276",
	"consumer_factor": -55.1
    },
    {
	"temperature": 60.0,
	"profile": "HEF_1D3",
	"id": "c277",
	"consumer_factor": -111.64
    },
    {
	"temperature": 60.0,
	"profile": "HEF_1D3",
	"id": "c278",
	"consumer_factor": -80.7
    },
    {
	"temperature": 60.0,
	"profile": "HEF_1D3",
	"id": "c279",
	"consumer_factor": -219.55
    },
    {
	"temperature": 60.0,
	"profile": "HEF_1D3",
	"id": "c280",
	"consumer_factor": -80.73
    },
    {
	"temperature": 60.0,
	"profile": "HEF_1D3",
	"id": "c281",
	"consumer_factor": -209.03
    },
    {
	"temperature": 60.0,
	"profile": "HEF_1D3",
	"id": "c282",
	"consumer_factor": -252.08
    },
    {
	"temperature": 60.0,
	"profile": "HEF_1D3",
	"id": "c283",
	"consumer_factor": -80.77
    },
    {
	"temperature": 60.0,
	"profile": "HEF_1D3",
	"id": "c284",
	"consumer_factor": -139.83
    },
    {
	"temperature": 60.0,
	"profile": "HEF_1D3",
	"id": "c285",
	"consumer_factor": -72.56
    },
    {
	"temperature": 60.0,
	"profile": "HEF_1D3",
	"id": "c286",
	"consumer_factor": -388.58
    },
    {
	"temperature": 60.0,
	"profile": "HEF_1D3",
	"id": "c287",
	"consumer_factor": -117.86
    },
    {
	"temperature": 60.0,
	"profile": "HEF_1D3",
	"id": "c288",
	"consumer_factor": -232.82
    },
    {
	"temperature": 60.0,
	"profile": "HEF_1D3",
	"id": "c289",
	"consumer_factor": -171.66
    },
    {
	"temperature": 60.0,
	"profile": "HEF_1D3",
	"id": "c290",
	"consumer_factor": -5.64
    },
    {
	"temperature": 60.0,
	"profile": "HEF_1D3",
	"id": "c291",
	"consumer_factor": -120.63
    },
    {
	"temperature": 60.0,
	"profile": "HEF_1D3",
	"id": "c292",
	"consumer_factor": -127.65
    },
    {
	"temperature": 60.0,
	"profile": "HEF_1D3",
	"id": "c293",
	"consumer_factor": -111.99
    },
    {
	"temperature": 60.0,
	"profile": "HEF_1D3",
	"id": "c294",
	"consumer_factor": -171.13
    },
    {
	"temperature": 60.0,
	"profile": "HEF_1D3",
	"id": "c295",
	"consumer_factor": -151.21
    },
    {
	"temperature": 60.0,
	"profile": "HEF_1D3",
	"id": "c296",
	"consumer_factor": -24.55
    },
    {
	"temperature": 60.0,
	"profile": "HEF_1D3",
	"id": "c297",
	"consumer_factor": -143.66
    },
    {
	"temperature": 60.0,
	"profile": "HEF_1D3",
	"id": "c298",
	"consumer_factor": -122.62
    },
    {
	"temperature": 60.0,
	"profile": "HEF_1D3",
	"id": "c299",
	"consumer_factor": -99.15
    },
    {
	"temperature": 60.0,
	"profile": "HEF_1D3",
	"id": "c300",
	"consumer_factor": -155.53
    },
    {
	"temperature": 60.0,
	"profile": "HEF_1D3",
	"id": "c301",
	"consumer_factor": -101.13
    },
    {
	"temperature": 60.0,
	"profile": "HEF_1D3",
	"id": "c302",
	"consumer_factor": -17.37
    },
    {
	"temperature": 60.0,
	"profile": "HEF_1D3",
	"id": "c303",
	"consumer_factor": -95.76
    },
    {
	"temperature": 60.0,
	"profile": "HEF_1D3",
	"id": "c304",
	"consumer_factor": -108.02
    },
    {
	"temperature": 60.0,
	"profile": "HEF_1D3",
	"id": "c305",
	"consumer_factor": -258.45
    },
    {
	"temperature": 60.0,
	"profile": "HEF_1D3",
	"id": "c306",
	"consumer_factor": -123.23
    },
    {
	"temperature": 60.0,
	"profile": "HEF_1D3",
	"id": "c307",
	"consumer_factor": -80.39
    },
    {
	"temperature": 60.0,
	"profile": "HEF_1D3",
	"id": "c308",
	"consumer_factor": -787.15
    },
    {
	"temperature": 60.0,
	"profile": "HEF_1D3",
	"id": "c309",
	"consumer_factor": -70.8
    },
    {
	"temperature": 60.0,
	"profile": "HEF_1D3",
	"id": "c310",
	"consumer_factor": -98.17
    },
    {
	"temperature": 60.0,
	"profile": "HEF_1D3",
	"id": "c311",
	"consumer_factor": -121.46
    },
    {
	"temperature": 60.0,
	"profile": "HEF_1D3",
	"id": "c312",
	"consumer_factor": -129.68
    },
    {
	"temperature": 60.0,
	"profile": "HEF_1D3",
	"id": "c313",
	"consumer_factor": -64.27
    },
    {
	"temperature": 60.0,
	"profile": "HEF_1D3",
	"id": "c314",
	"consumer_factor": -96.75
    },
    {
	"temperature": 60.0,
	"profile": "HEF_1D3",
	"id": "c315",
	"consumer_factor": -25.66
    },
    {
	"temperature": 60.0,
	"profile": "HEF_1D3",
	"id": "c316",
	"consumer_factor": -226.11
    },
    {
	"temperature": 60.0,
	"profile": "HEF_1D3",
	"id": "c317",
	"consumer_factor": -3833.85
    },
    {
	"temperature": 60.0,
	"profile": "HEF_1D3",
	"id": "c318",
	"consumer_factor": -386.92
    },
    {
	"temperature": 60.0,
	"profile": "HEF_1D3",
	"id": "c319",
	"consumer_factor": -89.23
    },
    {
	"temperature": 60.0,
	"profile": "HEF_1D3",
	"id": "c320",
	"consumer_factor": -89.44
    },
    {
	"temperature": 60.0,
	"profile": "HEF_1D3",
	"id": "c321",
	"consumer_factor": -134.87
    },
    {
	"temperature": 60.0,
	"profile": "HEF_1D3",
	"id": "c322",
	"consumer_factor": -98.91
    },
    {
	"temperature": 60.0,
	"profile": "HEF_1D3",
	"id": "c323",
	"consumer_factor": -164.58
    },
    {
	"temperature": 60.0,
	"profile": "HEF_1D3",
	"id": "c324",
	"consumer_factor": -177.99
    },
    {
	"temperature": 60.0,
	"profile": "HEF_1D3",
	"id": "c325",
	"consumer_factor": -394.27
    },
    {
	"temperature": 60.0,
	"profile": "HEF_1D3",
	"id": "c326",
	"consumer_factor": -60.26
    },
    {
	"temperature": 60.0,
	"profile": "HEF_1D3",
	"id": "c327",
	"consumer_factor": -137.15
    },
    {
	"temperature": 60.0,
	"profile": "HEF_1D3",
	"id": "c328",
	"consumer_factor": -198.18
    },
    {
	"temperature": 60.0,
	"profile": "HEF_1D3",
	"id": "c329",
	"consumer_factor": -176.19
    },
    {
	"temperature": 60.0,
	"profile": "HEF_1D3",
	"id": "c330",
	"consumer_factor": -284.76
    }
]
